{
  "members": [
    {
      "id": 1,
      "cin": "1122",
      "nom": "Ahmed",
      "prenom": "Ahmed",
      "date": null,
      "photo": null,
      "cv": "cv",
      "email": "stud@stud.enis",
      "password": "abc"
      
    },
    {
      "id": 2,
      "cin": "1133",
      "nom": "Mohamed",
      "prenom": "Mohamed",
      "date": null,
      "photo": null,
      "cv": "cv",
      "email": "stud@stud.enis",
      "password": "123"
      
    },
    {
      "id": 3,
      "cin": "112",
      "nom": "Ens1",
      "prenom": "Ens1",
      "date": null,
      "photo": null,
      "cv": "cv",
      "email": "ens@ens.tn",
      "password": "pass"
   
    },
    {
      "id": 4,
      "cin": "113",
      "nom": "Ens2",
      "prenom": "Ens2",
      "date": null,
      "photo": null,
      "cv": "cv",
      "email": "ens@ens.tn",
      "password": "pass"
    }
  ],
  "tools": [
    {
      "id": "123456",
      "name": "compilateur",
      "Date": "2020-11-02T09:09:00Z",
      "source": "https://chlegou.com"
    },
    {
      "id": "1234567",
      "name": "ERP",
      "Date": "2020-11-02T09:09:00Z",
      "source": "https://www.cdc.gov/polio/stop/pdf/stop-cv-format.pdf"
    },
    {
      "id": "1234568",
      "name": "Gestion des RH",
      "Date": "2020-11-02T09:09:00Z",
      "source": "https://www.cdc.gov/polio/stop/pdf/stop-cv-format.pdf"
    }
  ],
  "articles": [
    {
      "id": "1234567",
      "titre": "titre article",
      "type": "type article",
      "lien": "lien article",
      "Date": "2020-11-02T09:09:00Z",
      "source": "https://chlegou.com"
    },
    {
      "id": "1234568",
      "titre": "titre article",
      "type": "type article",
      "lien": "lien article",
      "Date": "2020-11-02T09:09:00Z",
      "source": "https://www.cdc.gov/polio/stop/pdf/stop-cv-format.pdf"
    },
    {
      "id": "1234569",
      "titre": "titre article",
      "type": "type article",
      "lien": "lien article",
      "Date": "2020-11-02T09:09:00Z",
      "source": "https://www.cdc.gov/polio/stop/pdf/stop-cv-format.pdf"
    }
  ],
  "events": [
    {
      "id": "1234567",
      "titre": "titre evenement",
      "Date": "2020-11-02T09:09:00Z",
      "lieu": "lieu evenement"
    },
    {
      "id": "1234568",
      "titre": "titre evenement",
      "Date": "2020-11-02T09:09:00Z",
      "lieu": "lieu evenement"
    },
    {
      "id": "1234569",
      "titre": "titre evenement",
      "Date": "2020-11-02T09:09:00Z",
      "lieu": "lieu evenement"
    }
  ]
}

